…
flights %>% 
  left_join(location, c("dest" = "faa")) %>% 
  rename(dest_lat = lat,
         dest_lon = lon) %>% 
  left_join(location, c("origin" = "faa")) %>% 
  rename(origin_lat = lat,
         origin_lon = lon) %>% 
  select(origin, origin_lat, origin_lon, dest, dest_lat, dest_lon, everything())
```

```
## # A tibble: 336,776 x 23
##    origin origin_lat origin_lon dest  dest_lat dest_lon  year month   day
##    <chr>       <dbl>      <dbl> <chr>    <dbl>    <dbl> <int> <int> <int>
##  1 EWR          40.7      -74.2 IAH       30.0    -95.3  2013     1     1
##  2 LGA          40.8      -73.9 IAH       30.0    -95.3  2013     1     1
##  3 JFK          40.6      -73.8 MIA       25.8    -80.3  2013     1     1
##  4 JFK          40.6      -73.8 BQN       NA       NA    2013     1     1
##  5 LGA          40.8      -73.9 ATL       33.6    -84.4  2013     1     1
##  6 EWR          40.7      -74.2 ORD       42.0    -87.9  2013     1     1
##  7 EWR          40.7      -74.2 FLL       26.1    -80.2  2013     1     1
##  8 LGA          40.8      -73.9 IAD       38.9    -77.5  2013     1     1
##  9 JFK          40.6      -73.8 MCO       28.4    -81.3  2013     1     1
## 10 LGA          40.8      -73.9 ORD       42.0    -87.9  2013     1     1
## # ... with 336,766 more rows, and 14 more variables: dep_time <int>,
## #   sched_dep_time <int>, dep_delay <dbl>, arr_time <int>,
## #   sched_arr_time <int>, arr_delay <dbl>, carrier <chr>, flight <int>,
## #   tailnum <chr>, air_time <dbl>, distance <dbl>, hour <dbl>, minute <dbl>,
## #   time_hour <dttm>
```
…
flights %>% 
  semi_join(most_flown)
```

```
## Joining, by = "tailnum"
```

```
## # A tibble: 228,390 x 19
##     year month   day dep_time sched_dep_time dep_delay arr_time sched_arr_time
##    <int> <int> <int>    <int>          <int>     <dbl>    <int>          <int>
##  1  2013     1     1      517            515         2      830            819
##  2  2013     1     1      533            529         4      850            830
##  3  2013     1     1      544            545        -1     1004           1022
##  4  2013     1     1      554            558        -4      740            728
##  5  2013     1     1      555            600        -5      913            854
##  6  2013     1     1      557            600        -3      709            723
##  7  2013     1     1      557            600        -3      838            846
##  8  2013     1     1      558            600        -2      849            851
##  9  2013     1     1      558            600        -2      853            856
## 10  2013     1     1      558            600        -2      923            937
## # ... with 228,380 more rows, and 11 more variables: arr_delay <dbl>,
## #   carrier <chr>, flight <int>, tailnum <chr>, origin <chr>, dest <chr>,
## #   air_time <dbl>, distance <dbl>, hour <dbl>, minute <dbl>, time_hour <dttm>
```
…
