…
```r
# fliter to filter, = to ==
filter(mpg, cyl == 8)
```

```
## # A tibble: 70 x 11
##    manufacturer model     displ  year   cyl trans  drv     cty   hwy fl    class
##    <chr>        <chr>     <dbl> <int> <int> <chr>  <chr> <int> <int> <chr> <chr>
##  1 audi         a6 quatt~   4.2  2008     8 auto(~ 4        16    23 p     mids~
##  2 chevrolet    c1500 su~   5.3  2008     8 auto(~ r        14    20 r     suv  
##  3 chevrolet    c1500 su~   5.3  2008     8 auto(~ r        11    15 e     suv  
##  4 chevrolet    c1500 su~   5.3  2008     8 auto(~ r        14    20 r     suv  
##  5 chevrolet    c1500 su~   5.7  1999     8 auto(~ r        13    17 r     suv  
##  6 chevrolet    c1500 su~   6    2008     8 auto(~ r        12    17 r     suv  
##  7 chevrolet    corvette    5.7  1999     8 manua~ r        16    26 p     2sea~
##  8 chevrolet    corvette    5.7  1999     8 auto(~ r        15    23 p     2sea~
##  9 chevrolet    corvette    6.2  2008     8 manua~ r        16    26 p     2sea~
## 10 chevrolet    corvette    6.2  2008     8 auto(~ r        15    25 p     2sea~
## # ... with 60 more rows
```

```r
# diamond to diamonds
filter(diamonds, carat > 3)
```

```
## # A tibble: 32 x 10
##    carat cut     color clarity depth table price     x     y     z
##    <dbl> <ord>   <ord> <ord>   <dbl> <dbl> <int> <dbl> <dbl> <dbl>
##  1  3.01 Premium I     I1       62.7    58  8040  9.1   8.97  5.67
##  2  3.11 Fair    J     I1       65.9    57  9823  9.15  9.02  5.98
##  3  3.01 Premium F     I1       62.2    56  9925  9.24  9.13  5.73
##  4  3.05 Premium E     I1       60.9    58 10453  9.26  9.25  5.66
##  5  3.02 Fair    I     I1       65.2    56 10577  9.11  9.02  5.91
##  6  3.01 Fair    H     I1       56.1    62 10761  9.54  9.38  5.31
##  7  3.65 Fair    H     I1       67.1    53 11668  9.53  9.48  6.38
##  8  3.24 Premium H     I1       62.1    58 12300  9.44  9.4   5.85
##  9  3.22 Ideal   I     I1       62.6    55 12545  9.49  9.42  5.92
## 10  3.5  Ideal   H     I1       62.8    57 12587  9.65  9.59  6.03
## # ... with 22 more rows
```
…
**2. Sort `flights` to find the most delayed flights. Find the flights that left earliest.**   

```r
# most delayed
arrange(flights, desc(arr_delay)) %>% print(n = 6, width = Inf)
```

```
## # A tibble: 336,776 x 19
##    year month   day dep_time sched_dep_time dep_delay arr_time sched_arr_time
##   <int> <int> <int>    <int>          <int>     <dbl>    <int>          <int>
## 1  2013     1     9      641            900      1301     1242           1530
## 2  2013     6    15     1432           1935      1137     1607           2120
## 3  2013     1    10     1121           1635      1126     1239           1810
## 4  2013     9    20     1139           1845      1014     1457           2210
## 5  2013     7    22      845           1600      1005     1044           1815
## 6  2013     4    10     1100           1900       960     1342           2211
##   arr_delay carrier flight tailnum origin dest  air_time distance  hour minute
##       <dbl> <chr>    <int> <chr>   <chr>  <chr>    <dbl>    <dbl> <dbl>  <dbl>
## 1      1272 HA          51 N384HA  JFK    HNL        640     4983     9      0
## 2      1127 MQ        3535 N504MQ  JFK    CMH         74      483    19     35
## 3      1109 MQ        3695 N517MQ  EWR    ORD        111      719    16     35
## 4      1007 AA         177 N338AA  JFK    SFO        354     2586    18     45
## 5       989 MQ        3075 N665MQ  JFK    CVG         96      589    16      0
## 6       931 DL        2391 N959DL  JFK    TPA        139     1005    19      0
##   time_hour          
##   <dttm>             
## 1 2013-01-09 09:00:00
## 2 2013-06-15 19:00:00
## 3 2013-01-10 16:00:00
## 4 2013-09-20 18:00:00
## 5 2013-07-22 16:00:00
## 6 2013-04-10 19:00:00
## # ... with 336,770 more rows
```
…
**3. Sort `flights` to find the fastest (highest speed) flights.**    

```r
# can sort to find fastest flights in terms of shortest 
arrange(flights, air_time) %>% print(n = 6, width = Inf)
```

```
## # A tibble: 336,776 x 19
##    year month   day dep_time sched_dep_time dep_delay arr_time sched_arr_time
##   <int> <int> <int>    <int>          <int>     <dbl>    <int>          <int>
## 1  2013     1    16     1355           1315        40     1442           1411
## 2  2013     4    13      537            527        10      622            628
## 3  2013    12     6      922            851        31     1021            954
## 4  2013     2     3     2153           2129        24     2247           2224
## 5  2013     2     5     1303           1315       -12     1342           1411
## 6  2013     2    12     2123           2130        -7     2211           2225
##   arr_delay carrier flight tailnum origin dest  air_time distance  hour minute
##       <dbl> <chr>    <int> <chr>   <chr>  <chr>    <dbl>    <dbl> <dbl>  <dbl>
## 1        31 EV        4368 N16911  EWR    BDL         20      116    13     15
## 2        -6 EV        4631 N12167  EWR    BDL         20      116     5     27
## 3        27 EV        4276 N27200  EWR    BDL         21      116     8     51
## 4        23 EV        4619 N13913  EWR    PHL         21       80    21     29
## 5       -29 EV        4368 N13955  EWR    BDL         21      116    13     15
## 6       -14 EV        4619 N12921  EWR    PHL         21       80    21     30
##   time_hour          
##   <dttm>             
## 1 2013-01-16 13:00:00
## 2 2013-04-13 05:00:00
## 3 2013-12-06 08:00:00
## 4 2013-02-03 21:00:00
## 5 2013-02-05 13:00:00
## 6 2013-02-12 21:00:00
## # ... with 336,770 more rows
```

```r
# doesn't seem like any of the existing variables provide information on speed though...
mutate(flights,
       speed = distance / air_time) %>% 
  arrange(desc(speed)) %>% 
  print(n = 6, width = Inf)
```

```
## # A tibble: 336,776 x 20
##    year month   day dep_time sched_dep_time dep_delay arr_time sched_arr_time
##   <int> <int> <int>    <int>          <int>     <dbl>    <int>          <int>
## 1  2013     5    25     1709           1700         9     1923           1937
## 2  2013     7     2     1558           1513        45     1745           1719
## 3  2013     5    13     2040           2025        15     2225           2226
## 4  2013     3    23     1914           1910         4     2045           2043
## 5  2013     1    12     1559           1600        -1     1849           1917
## 6  2013    11    17      650            655        -5     1059           1150
##   arr_delay carrier flight tailnum origin dest  air_time distance  hour minute
##       <dbl> <chr>    <int> <chr>   <chr>  <chr>    <dbl>    <dbl> <dbl>  <dbl>
## 1       -14 DL        1499 N666DN  LGA    ATL         65      762    17      0
## 2        26 EV        4667 N17196  EWR    MSP         93     1008    15     13
## 3        -1 EV        4292 N14568  EWR    GSP         55      594    20     25
## 4         2 EV        3805 N12567  EWR    BNA         70      748    19     10
## 5       -28 DL        1902 N956DL  LGA    PBI        105     1035    16      0
## 6       -51 DL         315 N3768   JFK    SJU        170     1598     6     55
##   time_hour           speed
##   <dttm>              <dbl>
## 1 2013-05-25 17:00:00 11.7 
## 2 2013-07-02 15:00:00 10.8 
## 3 2013-05-13 20:00:00 10.8 
## 4 2013-03-23 19:00:00 10.7 
## 5 2013-01-12 16:00:00  9.86
## 6 2013-11-17 06:00:00  9.4 
## # ... with 336,770 more rows
```

**4. Which flights travelled the farthest? Which travelled the shortest?**     

```r
# farthest distance 
arrange(flights, desc(distance)) %>% print(n = 6, width = Inf)
```

```
## # A tibble: 336,776 x 19
##    year month   day dep_time sched_dep_time dep_delay arr_time sched_arr_time
##   <int> <int> <int>    <int>          <int>     <dbl>    <int>          <int>
## 1  2013     1     1      857            900        -3     1516           1530
## 2  2013     1     2      909            900         9     1525           1530
## 3  2013     1     3      914            900        14     1504           1530
## 4  2013     1     4      900            900         0     1516           1530
## 5  2013     1     5      858            900        -2     1519           1530
## 6  2013     1     6     1019            900        79     1558           1530
##   arr_delay carrier flight tailnum origin dest  air_time distance  hour minute
##       <dbl> <chr>    <int> <chr>   <chr>  <chr>    <dbl>    <dbl> <dbl>  <dbl>
## 1       -14 HA          51 N380HA  JFK    HNL        659     4983     9      0
## 2        -5 HA          51 N380HA  JFK    HNL        638     4983     9      0
## 3       -26 HA          51 N380HA  JFK    HNL        616     4983     9      0
## 4       -14 HA          51 N384HA  JFK    HNL        639     4983     9      0
## 5       -11 HA          51 N381HA  JFK    HNL        635     4983     9      0
## 6        28 HA          51 N385HA  JFK    HNL        611     4983     9      0
##   time_hour          
##   <dttm>             
## 1 2013-01-01 09:00:00
## 2 2013-01-02 09:00:00
## 3 2013-01-03 09:00:00
## 4 2013-01-04 09:00:00
## 5 2013-01-05 09:00:00
## 6 2013-01-06 09:00:00
## # ... with 336,770 more rows
```

```r
# shortest distance
arrange(flights, distance) %>% print(n = 6, width = Inf)
```

```
## # A tibble: 336,776 x 19
##    year month   day dep_time sched_dep_time dep_delay arr_time sched_arr_time
##   <int> <int> <int>    <int>          <int>     <dbl>    <int>          <int>
## 1  2013     7    27       NA            106        NA       NA            245
## 2  2013     1     3     2127           2129        -2     2222           2224
## 3  2013     1     4     1240           1200        40     1333           1306
## 4  2013     1     4     1829           1615       134     1937           1721
## 5  2013     1     4     2128           2129        -1     2218           2224
## 6  2013     1     5     1155           1200        -5     1241           1306
##   arr_delay carrier flight tailnum origin dest  air_time distance  hour minute
##       <dbl> <chr>    <int> <chr>   <chr>  <chr>    <dbl>    <dbl> <dbl>  <dbl>
## 1        NA US        1632 <NA>    EWR    LGA         NA       17     1      6
## 2        -2 EV        3833 N13989  EWR    PHL         30       80    21     29
## 3        27 EV        4193 N14972  EWR    PHL         30       80    12      0
## 4       136 EV        4502 N15983  EWR    PHL         28       80    16     15
## 5        -6 EV        4645 N27962  EWR    PHL         32       80    21     29
## 6       -25 EV        4193 N14902  EWR    PHL         29       80    12      0
##   time_hour          
##   <dttm>             
## 1 2013-07-27 01:00:00
## 2 2013-01-03 21:00:00
## 3 2013-01-04 12:00:00
## 4 2013-01-04 16:00:00
## 5 2013-01-04 21:00:00
## 6 2013-01-05 12:00:00
## # ... with 336,770 more rows
```
…
Looks like `one_of()` just selects for the variable names included within the vector. This would be useful if you have many lines of code or graphs working with a specific subset of columns and you wanted to easily change the column subset for all those lines by changing only the initial variable vector. Also, `one_of()` is now replaced by `any_of()` and `all_of()`. 

**mutat4. Does the result of running the following code surprise you? How do the select helpers deal with case by default? How can you change that default?**    

```r
select(flights, contains("TIME"))
```

```
## # A tibble: 336,776 x 6
##    dep_time sched_dep_time arr_time sched_arr_time air_time time_hour          
##       <int>          <int>    <int>          <int>    <dbl> <dttm>             
##  1      517            515      830            819      227 2013-01-01 05:00:00
##  2      533            529      850            830      227 2013-01-01 05:00:00
##  3      542            540      923            850      160 2013-01-01 05:00:00
##  4      544            545     1004           1022      183 2013-01-01 05:00:00
##  5      554            600      812            837      116 2013-01-01 06:00:00
##  6      554            558      740            728      150 2013-01-01 05:00:00
##  7      555            600      913            854      158 2013-01-01 06:00:00
##  8      557            600      709            723       53 2013-01-01 06:00:00
##  9      557            600      838            846      140 2013-01-01 06:00:00
## 10      558            600      753            745      138 2013-01-01 06:00:00
## # ... with 336,766 more rows
```
…
#### 5.5.2   

**1. Currently `dep_time` and `sched_dep_time` are convenient to look at, but hard to compute with because they're not really continuous numbers. Convert them to a more convenient representation of number of minutes since midnight.**     

```r
mutate(flights, 
       dep_min = (dep_time %/% 100) * 60 + dep_time %% 100,
       sched_dep_min = (sched_dep_time %/% 100) * 60 + sched_dep_time %% 100
       ) %>% 
  print(n = 6, width = Inf)
```

```
## # A tibble: 336,776 x 21
##    year month   day dep_time sched_dep_time dep_delay arr_time sched_arr_time
##   <int> <int> <int>    <int>          <int>     <dbl>    <int>          <int>
## 1  2013     1     1      517            515         2      830            819
## 2  2013     1     1      533            529         4      850            830
## 3  2013     1     1      542            540         2      923            850
## 4  2013     1     1      544            545        -1     1004           1022
## 5  2013     1     1      554            600        -6      812            837
## 6  2013     1     1      554            558        -4      740            728
##   arr_delay carrier flight tailnum origin dest  air_time distance  hour minute
##       <dbl> <chr>    <int> <chr>   <chr>  <chr>    <dbl>    <dbl> <dbl>  <dbl>
## 1        11 UA        1545 N14228  EWR    IAH        227     1400     5     15
## 2        20 UA        1714 N24211  LGA    IAH        227     1416     5     29
## 3        33 AA        1141 N619AA  JFK    MIA        160     1089     5     40
## 4       -18 B6         725 N804JB  JFK    BQN        183     1576     5     45
## 5       -25 DL         461 N668DN  LGA    ATL        116      762     6      0
## 6        12 UA        1696 N39463  EWR    ORD        150      719     5     58
##   time_hour           dep_min sched_dep_min
##   <dttm>                <dbl>         <dbl>
## 1 2013-01-01 05:00:00     317           315
## 2 2013-01-01 05:00:00     333           329
## 3 2013-01-01 05:00:00     342           340
## 4 2013-01-01 05:00:00     344           345
## 5 2013-01-01 06:00:00     354           360
## 6 2013-01-01 05:00:00     354           358
## # ... with 336,770 more rows
```
…
Generally the `dep_time` should be the `sched_dep_time` + `dep_delay`, but this doesn't work when the `dep_time` and `sched_dep_time` are across different hours. 

**4. Find the 10 most delayed flights using a ranking function. How do you want to handle ties? Carefully read the documentation for min_rank().**    

```r
mutate(flights, 
       delay_rank = min_rank(desc(arr_delay))) %>% 
  arrange(delay_rank) %>% 
  print(n = 10, width = Inf)
```

```
## # A tibble: 336,776 x 20
##     year month   day dep_time sched_dep_time dep_delay arr_time sched_arr_time
##    <int> <int> <int>    <int>          <int>     <dbl>    <int>          <int>
##  1  2013     1     9      641            900      1301     1242           1530
##  2  2013     6    15     1432           1935      1137     1607           2120
##  3  2013     1    10     1121           1635      1126     1239           1810
##  4  2013     9    20     1139           1845      1014     1457           2210
##  5  2013     7    22      845           1600      1005     1044           1815
##  6  2013     4    10     1100           1900       960     1342           2211
##  7  2013     3    17     2321            810       911      135           1020
##  8  2013     7    22     2257            759       898      121           1026
##  9  2013    12     5      756           1700       896     1058           2020
## 10  2013     5     3     1133           2055       878     1250           2215
##    arr_delay carrier flight tailnum origin dest  air_time distance  hour minute
##        <dbl> <chr>    <int> <chr>   <chr>  <chr>    <dbl>    <dbl> <dbl>  <dbl>
##  1      1272 HA          51 N384HA  JFK    HNL        640     4983     9      0
##  2      1127 MQ        3535 N504MQ  JFK    CMH         74      483    19     35
##  3      1109 MQ        3695 N517MQ  EWR    ORD        111      719    16     35
##  4      1007 AA         177 N338AA  JFK    SFO        354     2586    18     45
##  5       989 MQ        3075 N665MQ  JFK    CVG         96      589    16      0
##  6       931 DL        2391 N959DL  JFK    TPA        139     1005    19      0
##  7       915 DL        2119 N927DA  LGA    MSP        167     1020     8     10
##  8       895 DL        2047 N6716C  LGA    ATL        109      762     7     59
##  9       878 AA         172 N5DMAA  EWR    MIA        149     1085    17      0
## 10       875 MQ        3744 N523MQ  EWR    ORD        112      719    20     55
##    time_hour           delay_rank
##    <dttm>                   <int>
##  1 2013-01-09 09:00:00          1
##  2 2013-06-15 19:00:00          2
##  3 2013-01-10 16:00:00          3
##  4 2013-09-20 18:00:00          4
##  5 2013-07-22 16:00:00          5
##  6 2013-04-10 19:00:00          6
##  7 2013-03-17 08:00:00          7
##  8 2013-07-22 07:00:00          8
##  9 2013-12-05 17:00:00          9
## 10 2013-05-03 20:00:00         10
## # ... with 336,766 more rows
```
…
